…
    print(any(is.na(cancer_sample))) #To test if any missing value in the dataset

    ## [1] FALSE

    arrange(cancer_sample,diagnosis) #To order rows using column values

    ## # A tibble: 569 × 32
    ##          ID diagnosis radius_mean texture_mean perimeter_mean area_mean
    ##       <dbl> <chr>           <dbl>        <dbl>          <dbl>     <dbl>
    ##  1  8510426 B               13.5          14.4           87.5      566.
    ##  2  8510653 B               13.1          15.7           85.6      520 
    ##  3  8510824 B                9.50         12.4           60.3      274.
    ##  4   854941 B               13.0          18.4           82.6      524.
    ##  5 85713702 B                8.20         16.8           51.7      202.
    ##  6   857155 B               12.0          14.6           78.0      449.
    ##  7   857156 B               13.5          22.3           86.9      561 
    ##  8   857343 B               11.8          21.6           74.7      428.
    ##  9   857373 B               13.6          16.3           87.2      572.
    ## 10   857374 B               11.9          18.2           75.7      438.
    ## # ℹ 559 more rows
    ## # ℹ 26 more variables: smoothness_mean <dbl>, compactness_mean <dbl>,
    ## #   concavity_mean <dbl>, concave_points_mean <dbl>, symmetry_mean <dbl>,
    ## #   fractal_dimension_mean <dbl>, radius_se <dbl>, texture_se <dbl>,
    ## #   perimeter_se <dbl>, area_se <dbl>, smoothness_se <dbl>,
    ## #   compactness_se <dbl>, concavity_se <dbl>, concave_points_se <dbl>,
    ## #   symmetry_se <dbl>, fractal_dimension_se <dbl>, radius_worst <dbl>, …

    filter(cancer_sample,diagnosis=="M") #To filter malignant diagnosis

    ## # A tibble: 212 × 32
    ##          ID diagnosis radius_mean texture_mean perimeter_mean area_mean
    ##       <dbl> <chr>           <dbl>        <dbl>          <dbl>     <dbl>
    ##  1   842302 M                18.0         10.4          123.      1001 
    ##  2   842517 M                20.6         17.8          133.      1326 
    ##  3 84300903 M                19.7         21.2          130       1203 
    ##  4 84348301 M                11.4         20.4           77.6      386.
    ##  5 84358402 M                20.3         14.3          135.      1297 
    ##  6   843786 M                12.4         15.7           82.6      477.
    ##  7   844359 M                18.2         20.0          120.      1040 
    ##  8 84458202 M                13.7         20.8           90.2      578.
    ##  9   844981 M                13           21.8           87.5      520.
    ## 10 84501001 M                12.5         24.0           84.0      476.
    ## # ℹ 202 more rows
    ## # ℹ 26 more variables: smoothness_mean <dbl>, compactness_mean <dbl>,
    ## #   concavity_mean <dbl>, concave_points_mean <dbl>, symmetry_mean <dbl>,
    ## #   fractal_dimension_mean <dbl>, radius_se <dbl>, texture_se <dbl>,
    ## #   perimeter_se <dbl>, area_se <dbl>, smoothness_se <dbl>,
    ## #   compactness_se <dbl>, concavity_se <dbl>, concave_points_se <dbl>,
    ## #   symmetry_se <dbl>, fractal_dimension_se <dbl>, radius_worst <dbl>, …
…
    print(any(is.na(vancouver_trees))) #To test if any missing value in the dataset

    ## [1] TRUE

    arrange(vancouver_trees,diameter) #To order the data with diameter

    ## # A tibble: 146,611 × 20
    ##    tree_id civic_number std_street    genus_name  species_name  cultivar_name   
    ##      <dbl>        <dbl> <chr>         <chr>       <chr>         <chr>           
    ##  1  158784         6340 COMMERCIAL ST LIQUIDAMBAR STYRACIFLUA   WORPLESDON      
    ##  2   32577         3870 W 33RD AV     ACER        CAMPESTRE     QUEEN ELIZABETH 
    ##  3   12605         4553 W 12TH AV     PRUNUS      CERASIFERA    NIGRA           
    ##  4  197126         6086 DUNBAR ST     PRUNUS      X YEDOENSIS   AKEBONO         
    ##  5  231280         3640 E 28TH AV     MAGNOLIA    XX            GALAXY          
    ##  6  231952         2006 E 3RD AV      AMELANCHIER GRANDIFLORA X AUTUMN BRILLIAN…
    ##  7  231953         2069 E 3RD AV      PARROTIA    PERSICA       VANESSA         
    ##  8  208057          221 E 63RD AV     PRUNUS      CERASIFERA    NIGRA           
    ##  9  184766         6226 MONTGOMERY ST STYRAX      JAPONICA      SNOWCONE        
    ## 10  188671         1955 CORNWALL AV   ACER        PLATANOIDES   <NA>            
    ## # ℹ 146,601 more rows
    ## # ℹ 14 more variables: common_name <chr>, assigned <chr>, root_barrier <chr>,
    ## #   plant_area <chr>, on_street_block <dbl>, on_street <chr>,
    ## #   neighbourhood_name <chr>, street_side_name <chr>, height_range_id <dbl>,
    ## #   diameter <dbl>, curb <chr>, date_planted <date>, longitude <dbl>,
    ## #   latitude <dbl>

    filter(vancouver_trees,diameter>60) #To filter trees with diameters more than 60

    ## # A tibble: 64 × 20
    ##    tree_id civic_number std_street       genus_name   species_name cultivar_name
    ##      <dbl>        <dbl> <chr>            <chr>        <chr>        <chr>        
    ##  1  161226         3927 W 37TH AV        PSEUDOTSUGA  MENZIESII    <NA>         
    ##  2  222821         3490 W 7TH AV         POPULUS      NIGRA        ITALICA      
    ##  3  182674         1488 E 64TH AV        ULMUS        AMERICANA    BRANDON      
    ##  4  184211         4210 W 16TH AV        QUERCUS      PHELLOS      <NA>         
    ##  5   23759          554 W 22ND AV        PRUNUS       SERRULATA    KWANZAN      
    ##  6  142060         4050 CARTIER ST       CORNUS       NUTTALLII    <NA>         
    ##  7  142098         4050 OSLER ST         CHAMAECYPAR… LAWSONIANA   <NA>         
    ##  8  142099         1063 W KING EDWARD AV CORNUS       NUTTALLII    <NA>         
    ##  9   51001          849 W 60TH AV        ACER         SACCHARINUM  <NA>         
    ## 10  126266         4239 CAMBIE ST        SEQUOIADEND… GIGANTEUM    <NA>         
    ## # ℹ 54 more rows
    ## # ℹ 14 more variables: common_name <chr>, assigned <chr>, root_barrier <chr>,
    ## #   plant_area <chr>, on_street_block <dbl>, on_street <chr>,
    ## #   neighbourhood_name <chr>, street_side_name <chr>, height_range_id <dbl>,
    ## #   diameter <dbl>, curb <chr>, date_planted <date>, longitude <dbl>,
    ## #   latitude <dbl>
…
    print(any(is.na(apt_buildings))) #To test if any missing value in the dataset

    ## [1] TRUE

    arrange(apt_buildings,emergency_power) #To order the data with emergency_power

    ## # A tibble: 3,455 × 37
    ##       id air_conditioning amenities             balconies barrier_free_accessi…¹
    ##    <dbl> <chr>            <chr>                 <chr>     <chr>                 
    ##  1 10359 NONE             Outdoor rec faciliti… YES       YES                   
    ##  2 10361 NONE             <NA>                  YES       NO                    
    ##  3 10362 NONE             <NA>                  YES       YES                   
    ##  4 10363 NONE             <NA>                  NO        NO                    
    ##  5 10364 NONE             <NA>                  NO        NO                    
    ##  6 10365 NONE             <NA>                  NO        YES                   
    ##  7 10367 NONE             <NA>                  YES       YES                   
    ##  8 10370 NONE             <NA>                  YES       NO                    
    ##  9 10371 NONE             <NA>                  YES       YES                   
    ## 10 10372 NONE             <NA>                  YES       NO                    
    ## # ℹ 3,445 more rows
    ## # ℹ abbreviated name: ¹​barrier_free_accessibilty_entr
    ## # ℹ 32 more variables: bike_parking <chr>, exterior_fire_escape <chr>,
    ## #   fire_alarm <chr>, garbage_chutes <chr>, heating_type <chr>, intercom <chr>,
    ## #   laundry_room <chr>, locker_or_storage_room <chr>, no_of_elevators <dbl>,
    ## #   parking_type <chr>, pets_allowed <chr>, prop_management_company_name <chr>,
    ## #   property_type <chr>, rsn <dbl>, separate_gas_meters <chr>, …

    filter(apt_buildings,emergency_power=="NO")

    ## # A tibble: 1,928 × 37
    ##       id air_conditioning amenities             balconies barrier_free_accessi…¹
    ##    <dbl> <chr>            <chr>                 <chr>     <chr>                 
    ##  1 10359 NONE             Outdoor rec faciliti… YES       YES                   
    ##  2 10361 NONE             <NA>                  YES       NO                    
    ##  3 10362 NONE             <NA>                  YES       YES                   
    ##  4 10363 NONE             <NA>                  NO        NO                    
    ##  5 10364 NONE             <NA>                  NO        NO                    
    ##  6 10365 NONE             <NA>                  NO        YES                   
    ##  7 10367 NONE             <NA>                  YES       YES                   
    ##  8 10370 NONE             <NA>                  YES       NO                    
    ##  9 10371 NONE             <NA>                  YES       YES                   
    ## 10 10372 NONE             <NA>                  YES       NO                    
    ## # ℹ 1,918 more rows
    ## # ℹ abbreviated name: ¹​barrier_free_accessibilty_entr
    ## # ℹ 32 more variables: bike_parking <chr>, exterior_fire_escape <chr>,
    ## #   fire_alarm <chr>, garbage_chutes <chr>, heating_type <chr>, intercom <chr>,
    ## #   laundry_room <chr>, locker_or_storage_room <chr>, no_of_elevators <dbl>,
    ## #   parking_type <chr>, pets_allowed <chr>, prop_management_company_name <chr>,
    ## #   property_type <chr>, rsn <dbl>, separate_gas_meters <chr>, …
…
\###Exercise 7: Make a new tibble with a subset of the data for
smoothness

    # create a new tibble with the the following selected variables
    SM_Subset <- cancer_sample %>%
      select(ID,diagnosis,smoothness_mean,smoothness_se,smoothness_worst)
    SM_Subset

    ## # A tibble: 569 × 5
    ##          ID diagnosis smoothness_mean smoothness_se smoothness_worst
    ##       <dbl> <chr>               <dbl>         <dbl>            <dbl>
    ##  1   842302 M                  0.118        0.00640            0.162
    ##  2   842517 M                  0.0847       0.00522            0.124
    ##  3 84300903 M                  0.110        0.00615            0.144
    ##  4 84348301 M                  0.142        0.00911            0.210
    ##  5 84358402 M                  0.100        0.0115             0.137
    ##  6   843786 M                  0.128        0.00751            0.179
    ##  7   844359 M                  0.0946       0.00431            0.144
    ##  8 84458202 M                  0.119        0.00880            0.165
    ##  9   844981 M                  0.127        0.00573            0.170
    ## 10 84501001 M                  0.119        0.00715            0.185
    ## # ℹ 559 more rows
…
